{
    "id": 4,
    "name": "d",
    "edges": [
        {
            "id": 3,
            "name": "cd",
            "startNodeId": 3,
            "endNodeId": 4
        },
        {
            "id": 6,
            "name": "ad",
            "startNodeId": 1,
            "endNodeId": 4
        }
    ]
}